Region,Fall,Incidens
Blekinge,8,5
Dalarna,4,1
Gotland,2,3
Gävleborg,6,2
Halland,40,12
Jämtland,11,8
Jönköping,38,10
Kalmar,5,2
Kronoberg,12,6
Norrbotten,5,2
Skåne,170,12
Stockholm,341,14
Södermanland,16,5
Uppsala,36,9
Värmland,30,11
Västerbotten,9,3
Västernorrland,11,4
Västmanland,5,2
Västra Götaland,155,9
Örebro,9,3
Östergötland,11,2
Totalt,924,9
