Smittland,Fall,Procent (%)*
Italien,432,44
Österrike,179,18
Sverige,132,13
Iran,14,1
Schweiz,9,1
Frankrike,9,1
Spanien,5,1
USA,3,0
Finland,3,0
Tyskland,3,0
Portugal,2,0
Nederländerna,2,0
Andorra,2,0
Storbritannien,2,0
Danmark,1,0
Kina,1,0
Ej rapporterat,193,19